id,db_schema,db_table_name,db_table_columns,db_filter_condition,db_last_pull_batch,db_row_active_ind,db_type,db_username,db_password,db_host,db_port,db_tag
11,classicmodels,customers,*,,0,Y,oracle,classicmodels,nisum,localhost,1521,orcl
12,classicmodels,employees,*,,0,Y,oracle,classicmodels,nisum,localhost,1521,orcl
13,classicmodels,offices,*,,0,Y,oracle,classicmodels,nisum,localhost,1521,orcl
14,classicmodels,payments,*,,0,Y,oracle,classicmodels,nisum,localhost,1521,orcl
15,classicmodels,productlines,"productLine,textDescription,htmlDescription",,0,Y,oracle,classicmodels,nisum,localhost,1521,orcl
16,classicmodels,products,*,,0,Y,oracle,classicmodels,nisum,localhost,1521,orcl
4,northwind,categories,"CategoryID,CategoryName,Description",,0,Y,mysql,root,root,192.168.6.29,3306,northwind
10,northwind,customerdemographics,*,,0,Y,mysql,root,root,192.168.6.29,3306,northwind
2,northwind,customers,*,,0,Y,mysql,root,root,192.168.6.29,3306,northwind
3,northwind,employees,*,,0,Y,postgres,sai,nisum,localhost,5432,northwind
9,northwind,employeeterritories,*,,0,Y,mysql,root,root,192.168.6.29,3306,northwind
1,northwind,products,*,,0,Y,mysql,root,root,192.168.6.29,3306,northwind
5,northwind,region,*,,0,Y,mysql,root,root,192.168.6.29,3306,northwind
6,northwind,shippers,*,,0,Y,mysql,root,root,192.168.6.29,3306,northwind
7,northwind,suppliers,*,,0,Y,sqlserver,sai,nisum,localhost,1433,northwind
8,northwind,territories,*,,0,Y,mariadb,root,root,localhost,3456,northwind
