RegionID,RegionDescription
1,Eastern                                           
2,Westerns                                          
3,Northern                                          
4,Southern                                          
